<svg id="collapse_expand" data-name="collapse/ expand" xmlns="http://www.w3.org/2000/svg" xmlns:xlink="http://www.w3.org/1999/xlink" width="16" height="16" viewBox="0 0 16 16">
  <defs>
    <clipPath id="clip-path">
      <rect id="Rectangle_88" data-name="Rectangle 88" width="16" height="16" transform="translate(558 310)" fill="#fff" stroke="#1176c8" stroke-width="1.5"/>
    </clipPath>
  </defs>
  <g id="collapse_expand-2" data-name="collapse/ expand" transform="translate(-558 -310)" clip-path="url(#clip-path)">
    <g id="arrow-up-circle" transform="translate(557.273 309.273)">
      <circle id="Ellipse_17" data-name="Ellipse 17" cx="7.273" cy="7.273" r="7.273" transform="translate(1.455 1.455)" stroke-width="1.5" stroke="#1176c8" stroke-linecap="round" stroke-linejoin="round" fill="none"/>
      <path id="Path_31" data-name="Path 31" d="M11.636,8.727,8.727,5.818,5.818,8.727" transform="translate(0 1)" fill="none" stroke="#1176c8" stroke-linecap="round" stroke-linejoin="round" stroke-width="1.5"/>
    </g>
  </g>
</svg>
