<svg xmlns="http://www.w3.org/2000/svg" xmlns:xlink="http://www.w3.org/1999/xlink" width="16" height="16" viewBox="0 0 16 16">
  <defs>
    <clipPath id="clip-path">
      <rect id="Rectangle_26" data-name="Rectangle 26" width="16" height="16" transform="translate(336 144)" fill="#fff"/>
    </clipPath>
  </defs>
  <g id="Mask_Group_2" data-name="Mask Group 2" transform="translate(-336 -144)" clip-path="url(#clip-path)">
    <g id="filter" transform="translate(335.273 143.273)">
      <path id="Path_9" data-name="Path 9" d="M16,2.182H1.455l5.818,6.88v4.756l2.909,1.455V9.062Z" fill="none" stroke="#fff" stroke-linecap="round" stroke-linejoin="round" stroke-width="1.5"/>
    </g>
  </g>
</svg>
