<svg id="close" xmlns="http://www.w3.org/2000/svg" xmlns:xlink="http://www.w3.org/1999/xlink" width="16" height="16" viewBox="0 0 16 16">
  <defs>
    <clipPath id="clip-path">
      <rect id="Rectangle_180" data-name="Rectangle 180" width="16" height="16" fill="#9494a8"/>
    </clipPath>
  </defs>
  <g id="close-2" data-name="close" clip-path="url(#clip-path)">
    <path id="Path_572" data-name="Path 572" d="M20.286,5.9,18.674,4.286l-6.389,6.389L5.9,4.286,4.286,5.9l6.389,6.389L4.286,18.674,5.9,20.286,12.286,13.9l6.389,6.389,1.611-1.611L13.9,12.286Z" transform="translate(-4.286 -4.286)" fill="#9494a8"/>
  </g>
</svg>
