<svg xmlns="http://www.w3.org/2000/svg" width="5.811" height="10.121" viewBox="0 0 5.811 10.121">
  <path id="arrow_8px" data-name="arrow 8px" stroke="#e20074" d="M4,0,0,4,4,8" fill="none" transform="translate(0.75 1.061)" stroke-linecap="round" stroke-linejoin="round" stroke-width="1.5" opacity="0.2"/>
</svg>
