<svg xmlns="http://www.w3.org/2000/svg" xmlns:xlink="http://www.w3.org/1999/xlink" width="24" height="24" viewBox="0 0 24 24">
  <defs>
    <clipPath id="clip-path">
      <rect id="Rectangle_83" data-name="Rectangle 83" width="24" height="24" transform="translate(410 174)" fill="red"/>
    </clipPath>
  </defs>
  <g id="Mask_Group_4" data-name="Mask Group 4" transform="translate(-410 -174)" clip-path="url(#clip-path)">
    <g id="zoom-in" transform="translate(407.649 171.649)">
      <circle id="Ellipse_14" data-name="Ellipse 14" cx="9.405" cy="9.405" r="9.405" transform="translate(3.527 3.527)" stroke-width="1.5" stroke="#9494a8" stroke-linecap="round" stroke-linejoin="round" fill="none"/>
      <path id="Path_18" data-name="Path 18" d="M24.689,24.689l-5.114-5.114" fill="none" stroke="#9494a8" stroke-linecap="round" stroke-linejoin="round" stroke-width="1.5"/>
      <path id="Path_19" data-name="Path 19" d="M12.932,9.405v7.054" fill="none" stroke="#9494a8" stroke-linecap="round" stroke-linejoin="round" stroke-width="1.5"/>
      <path id="Path_20" data-name="Path 20" d="M9.405,12.932h7.054" fill="none" stroke="#9494a8" stroke-linecap="round" stroke-linejoin="round" stroke-width="1.5"/>
    </g>
  </g>
</svg>
