<svg xmlns="http://www.w3.org/2000/svg" xmlns:xlink="http://www.w3.org/1999/xlink" width="16" height="16" viewBox="0 0 16 16">
  <defs>
    <clipPath id="clip-path">
      <rect id="Rectangle_90" data-name="Rectangle 90" width="16" height="16" transform="translate(362 143)" fill="#fff" stroke="#fff" stroke-width="1.5"/>
    </clipPath>
  </defs>
  <g id="Mask_Group_10" data-name="Mask Group 10" transform="translate(-362 -143)" clip-path="url(#clip-path)">
    <g id="check-circle" transform="translate(361.382 142.466)">
      <path id="Path_34" data-name="Path 34" d="M15.7,7.909v.657A7.138,7.138,0,1,1,11.47,2.041" fill="none" stroke="#fff" stroke-linecap="round" stroke-linejoin="round" stroke-width="1.5"/>
      <path id="Path_35" data-name="Path 35" d="M15.7,2.855,8.565,10,6.424,7.859" fill="none" stroke="#fff" stroke-linecap="round" stroke-linejoin="round" stroke-width="1.5"/>
    </g>
  </g>
</svg>
